[
	{
		"vId": "Rv-qR4j-PSc",
		"title": "Forgiveness-Loving Kindness-Vipassana Practice ",
		"date": 1318887403000,
		"teacher": "Sayadaw U Silananda",
		"language":	"English",
		"description" : "In this talk Sayadaw U Silananda provides the instructions and then practice along with the yogis three practices:  (1) Forgiveness  (2) Loving Kindness  (3) Vipassana (sitting and walking)...",
		"notes":"We plan to add Closed Caption to this talk. If you could help in transcribing it please send us an email at tmcMeditationCenter@gmail.com"
	},
	{
		"vId": "gS4bweZpCTg",
		"title": "Buddha's First Sermon - The Setting in Motion of the Wheel of Dhamma - 1 of 3",
		"date": 1318887403000,
		"teacher": "Sayadaw U Silananda",
		"language":	"English",
		"description" : "Full moon days have a special significance for Theravada buddhists because... ",
		"notes":"We plan to add Closed Caption to this talk. If you could help in transcribing it please send us an email at tmcMeditationCenter@gmail.com"
	},
	{
		"vId": "Kw45CLDm6y4",
		"title": "Buddha's First Sermon - The Setting in Motion of the Wheel of Dhamma Discourse - 2 of 3",
		"date": 1318887403000,
		"teacher": "Sayadaw U Silananda",
		"language":	"English",
		"description" : "Full moon days have a special significance for Theravada buddhists because... ",
		"notes":"We plan to add Closed Caption to this talk. If you could help in transcribing it please send us an email at tmcMeditationCenter@gmail.com"
	},
	{
		"vId": "rn_rCqqQrCY",
		"title": "Buddha's First Sermon - The Setting in Motion of the Wheel of Dhamma Discourse - 3 of 3",
		"date": 1318887403000,
		"teacher": "Sayadaw U Silananda",
		"language":	"English",
		"description" : "Full moon days have a special significance for Theravada buddhists because... ",
		"notes":"We plan to add Closed Caption to this talk. If you could help in transcribing it please send us an email at tmcMeditationCenter@gmail.com"
	},	

	{
		"vId": "DVRK54XmGko",
		"title": "Bojjhanga Sutta (Gilana Sutta) - Discourse on illness",
		"date": 1318887403000,
		"teacher": "Sayadaw U Silananda",
		"language":	"English",
		"description" : "There are two kinds of Bojjhanga Sutta's: those that are found in Nikaya's or Collections and the other is the combination of... ",
		"notes":"We plan to add Closed Caption to this talk. If you could help in transcribing it please send us an email at tmcMeditationCenter@gmail.com"
	},	
	{
		"vId": "3OZ_JWCWpbg",
		"title": "People of Bamboo Gate - Veludvareyya Sutta 2 of 2",
		"date": 1318887403000,
		"teacher": "Sayadaw U Silananda",
		"language":	"English",
		"description" : "There are two kinds of Bojjhanga Sutta's: those that are found in Nikaya's or Collections and the other is the combination of... ",
		"notes":"We plan to add Closed Caption to this talk. If you could help in transcribing it please send us an email at tmcMeditationCenter@gmail.com"
	},
	{
		"vId": "EJTewXfnQAE",
		"title": "People of Bamboo Gate - Veludvareyya Sutta 1 of 2",
		"date": 1318887403000,
		"teacher": "Sayadaw U Silananda",
		"language":	"English",
		"description" : "There are two kinds of Bojjhanga Sutta's: those that are found in Nikaya's or Collections and the other is the combination of... ",
		"notes":"We plan to add Closed Caption to this talk. If you could help in transcribing it please send us an email at tmcMeditationCenter@gmail.com"
	},	
	{
		"vId": "SB1fL4cRIck",
		"title": "Four Noble Truths - Introduction 1 of 9",
		"date": 1318887403000,
		"teacher": "Sayadaw U Silananda",
		"language":	"English",
		"description" : "Buddha had to go through countless lifes to accumulate the perfections (parami's) just to be able to discover the four noble truths and then teach it to all beings...",
		"notes":"We plan to add Closed Caption to this talk. If you could help in transcribing it please send us an email at tmcMeditationCenter@gmail.com"
	},	
	{
		"vId": "fyDywtJXqys",
		"title": "Four Noble Truths - The Truth of Suffering 2of9",
		"date": 1318887403000,
		"teacher": "Sayadaw U Silananda",
		"language":	"English",
		"description" : "Buddha had to go through countless lifes to accumulate the perfections (parami's) just to be able to discover the four noble truths and then teach it to all beings...",
		"notes":"We plan to add Closed Caption to this talk. If you could help in transcribing it please send us an email at tmcMeditationCenter@gmail.com"
	},	
	{
		"vId": "VReBaR6G2po",
		"title": "Four Noble Truths - First Noble Truth Review 3of9",
		"date": 1318887403000,
		"teacher": "Sayadaw U Silananda",
		"language":	"English",
		"description" : "Buddha had to go through countless lifes to accumulate the perfections (parami's) just to be able to discover the four noble truths and then teach it to all beings...",
		"notes":"We plan to add Closed Caption to this talk. If you could help in transcribing it please send us an email at tmcMeditationCenter@gmail.com"
	},	
	{
		"vId": "EFBqexBk93E",
		"title": "Four Noble Truths - Second Noble Truth 4of9",
		"date": 1318887403000,
		"teacher": "Sayadaw U Silananda",
		"language":	"English",
		"description" : "Buddha had to go through countless lifes to accumulate the perfections (parami's) just to be able to discover the four noble truths and then teach it to all beings...",
		"notes":"We plan to add Closed Caption to this talk. If you could help in transcribing it please send us an email at tmcMeditationCenter@gmail.com"
	},	
	{
		"vId": "epVieNjLfyU",
		"title": "Four Noble Truths - Second Noble Truth Q&A 5of9",
		"date": 1318887403000,
		"teacher": "Sayadaw U Silananda",
		"language":	"English",
		"description" : "Buddha had to go through countless lifes to accumulate the perfections (parami's) just to be able to discover the four noble truths and then teach it to all beings...",
		"notes":"We plan to add Closed Caption to this talk. If you could help in transcribing it please send us an email at tmcMeditationCenter@gmail.com"
	},	
	{
		"vId": "YtA5EqAXc04",
		"title": "Four Noble Truths - Third Truth 6of9",
		"date": 1318887403000,
		"teacher": "Sayadaw U Silananda",
		"language":	"English",
		"description" : "Buddha had to go through countless lifes to accumulate the perfections (parami's) just to be able to discover the four noble truths and then teach it to all beings...",
		"notes":"We plan to add Closed Caption to this talk. If you could help in transcribing it please send us an email at tmcMeditationCenter@gmail.com"
	},	
	{
		"vId": "IYGPCADxRxE",
		"title": "Four Noble Truths - Fourth Truth 7of9",
		"date": 1318887403000,
		"teacher": "Sayadaw U Silananda",
		"language":	"English",
		"description" : "Buddha had to go through countless lifes to accumulate the perfections (parami's) just to be able to discover the four noble truths and then teach it to all beings...",
		"notes":"We plan to add Closed Caption to this talk. If you could help in transcribing it please send us an email at tmcMeditationCenter@gmail.com"
	},	
	{
		"vId": "K7wTF0t8k38",
		"title": "Fourth Noble Truth Practice 8of9",
		"date": 1318887403000,
		"teacher": "Sayadaw U Silananda",
		"language":	"English",
		"description" : "Buddha had to go through countless lifes to accumulate the perfections (parami's) just to be able to discover the four noble truths and then teach it to all beings...",
		"notes":"We plan to add Closed Caption to this talk. If you could help in transcribing it please send us an email at tmcMeditationCenter@gmail.com"
	},	
	{
		"vId": "Q6CAnTKtpgo",
		"title": "Fourth Noble Truth - Sila 9of9",
		"date": 1318887403000,
		"teacher": "Sayadaw U Silananda",
		"language":	"English",
		"description" : "Buddha had to go through countless lifes to accumulate the perfections (parami's) just to be able to discover the four noble truths and then teach it to all beings...",
		"notes":"We plan to add Closed Caption to this talk. If you could help in transcribing it please send us an email at tmcMeditationCenter@gmail.com"
	},	
	{
		"vId": "5An6Tsb8r5s",
		"title": "Two Major Buddhist Divisions & Tipitaka - An Overview",
		"date": 1318887403000,
		"teacher": "Sayadaw U Silananda",
		"language":	"English",
		"description" : "This is a exerpt from the introduction of a series of lectures given by the late Sayadaw U Silananda on Abhidhamma. In this talk Sayadaw explains briefly the two major divisions in buddhism i.e. Theravada and Mahayana buddhism, how the teaching of the Buddha was handed down from that time until today and how that teaching is classified into Nikaya and Tipitaka. ",
		"notes":"We plan to add Closed Caption to this talk. If you could help in transcribing it please send us an email at tmcMeditationCenter@gmail.com"
	},	
	{
		"vId": "HMXpFCe-M_c",
		"title": "Pathama Gelañña Sutta - Sick Hall (1 of 2)",
		"date": 1318887403000,
		"teacher": "Sayadaw U Silananda",
		"language":	"English",
		"description" : "The Buddha and his personal attendants... the dhamma to good medicine.",
		"notes":"We plan to add Closed Caption to this talk. If you could help in transcribing it please send us an email at tmcMeditationCenter@gmail.com"
	},	
	{
		"vId": "U4F_c3IgkCg",
		"title": "Pathama Gelañña Sutta - Sick Hall (2 of 2)",
		"date": 1318887403000,
		"teacher": "Sayadaw U Silananda",
		"language":	"English",
		"description" : "The Buddha and his personal attendant...  and compares the dhamma to good medicine.",
		"notes":"We plan to add Closed Caption to this talk. If you could help in transcribing it please send us an email at tmcMeditationCenter@gmail.com"
	}
]